<?xml version="1.0" encoding="UTF-8"?>
<session version="1.0">
<refactoring comment="Rename Java project &apos;Sorry&apos; to &apos;Sorry (temp)&apos;&#x0A;- Original element: &apos;Sorry&apos;&#x0A;- Renamed element: &apos;Sorry&apos;&#x0A;- Update references to refactored element" description="Rename Java project &apos;Sorry&apos;" flags="7" id="org.eclipse.jdt.ui.rename.java.project" input="=Sorry" name="Sorry (temp)" references="true" stamp="1446253539899" version="1.0"/>
</session>