<?xml version="1.0" encoding="UTF-8"?>
<session version="1.0">
<refactoring comment="Rename local variable &apos;minResource&apos; in &apos;client.FactoryManager.mostNeededResource()&apos; to &apos;min&apos;&#x0A;- Original project: &apos;Factory&apos;&#x0A;- Original element: &apos;client.FactoryManager.mostNeededResource().minResource&apos;&#x0A;- Renamed element: &apos;minResource&apos;&#x0A;- Update references to refactored element" description="Rename local variable &apos;minResource&apos;" id="org.eclipse.jdt.ui.rename.local.variable" input="/src&lt;client{FactoryManager.java[FactoryManager~mostNeededResource@minResource!4029!4056!4038!4048!QResource;!0!false" name="min" references="true" stamp="1449037076160" version="1.0"/>
</session>